{
  "shell_port": 59361,
  "iopub_port": 52175,
  "stdin_port": 41211,
  "control_port": 56281,
  "hb_port": 39665,
  "ip": "127.0.0.1",
  "key": "623599d7-6cdead10b3d09929454e8467",
  "transport": "tcp",
  "signature_scheme": "hmac-sha256",
  "kernel_name": ""
}